{
	"Profile name": "Test profile Alex",
	"Loading in minutes": "10",
	"Scripts list": [{
			"Script name": "send_web_startpage",
			"Script link": "https://gitlab.com/testload/examplescripts/blob/master/Scripts/Test_startpage.jmx",
			"Intensity per hour": "50",
			"Pacing in seconds": "5",
			"Containers": "2",
			"Memory requirement": "270",
			"Restart policy": "any",
			"JKS variable":"",
		}, {
			"Script name": "send_web_low_startpage",
			"Script link": "https://gitlab.com/testload/examplescripts/blob/master/Scripts/Test_startpage.jmx",
			"Intensity per hour": "1",
			"Pacing in seconds": "7",
			"Containers": "1",
			"Memory requirement": "540",
			"Restart policy": "none",
			"JKS variable":"",
		}
	]
}