{
	"Profile name": "Test profile 01",
	"Loading in minutes": "5",
	"Scripts list": [{
			"Script name": "send_web_google1",
			"Script link": "https://gitlab.com/testload/simplescripts/raw/master/Scripts/SystemA/UC_001_template.jmx",
			"Intensity per hour": "100",
			"Pacing in seconds": "5",
			"Containers": "2",
			"Memory requirement": "270",
			"Restart policy": "any",
			"JKS variable":""
		}, {
			"Script name": "send.web.google2",
			"Script link": "https://gitlab.com/testload/simplescripts/raw/master/Scripts/SystemB/UC_001_template.jmx",
			"Intensity per hour": "150",
			"Pacing in seconds": "7",
			"Containers": "1",
			"Memory requirement": "540",
			"Restart policy": "none",
			"JKS variable":""
		}
	]
}